%YAML 1.1
%TAG !u! tag:unity3d.com,2011:
--- !u!319 &31900000
AvatarMask:
  m_ObjectHideFlags: 0
  m_CorrespondingSourceObject: {fileID: 0}
  m_PrefabInstance: {fileID: 0}
  m_PrefabAsset: {fileID: 0}
  m_Name: Punch
  m_Mask: 00000000000000000000000000000000000000000100000001000000010000000100000000000000000000000100000001000000
  m_Elements:
  - m_Path: 
    m_Weight: 1
  - m_Path: Ch04
    m_Weight: 0
  - m_Path: mixamorig10:Hips
    m_Weight: 0
  - m_Path: mixamorig10:Hips/mixamorig10:LeftUpLeg
    m_Weight: 0
  - m_Path: mixamorig10:Hips/mixamorig10:LeftUpLeg/mixamorig10:LeftLeg
    m_Weight: 0
  - m_Path: mixamorig10:Hips/mixamorig10:LeftUpLeg/mixamorig10:LeftLeg/mixamorig10:LeftFoot
    m_Weight: 0
  - m_Path: mixamorig10:Hips/mixamorig10:LeftUpLeg/mixamorig10:LeftLeg/mixamorig10:LeftFoot/mixamorig10:LeftToeBase
    m_Weight: 0
  - m_Path: mixamorig10:Hips/mixamorig10:LeftUpLeg/mixamorig10:LeftLeg/mixamorig10:LeftFoot/mixamorig10:LeftToeBase/mixamorig10:LeftToe_End
    m_Weight: 0
  - m_Path: mixamorig10:Hips/mixamorig10:RightUpLeg
    m_Weight: 0
  - m_Path: mixamorig10:Hips/mixamorig10:RightUpLeg/mixamorig10:RightLeg
    m_Weight: 0
  - m_Path: mixamorig10:Hips/mixamorig10:RightUpLeg/mixamorig10:RightLeg/mixamorig10:RightFoot
    m_Weight: 0
  - m_Path: mixamorig10:Hips/mixamorig10:RightUpLeg/mixamorig10:RightLeg/mixamorig10:RightFoot/mixamorig10:RightToeBase
    m_Weight: 0
  - m_Path: mixamorig10:Hips/mixamorig10:RightUpLeg/mixamorig10:RightLeg/mixamorig10:RightFoot/mixamorig10:RightToeBase/mixamorig10:RightToe_End
    m_Weight: 0
  - m_Path: mixamorig10:Hips/mixamorig10:Spine
    m_Weight: 0
  - m_Path: mixamorig10:Hips/mixamorig10:Spine/mixamorig10:Spine1
    m_Weight: 0
  - m_Path: mixamorig10:Hips/mixamorig10:Spine/mixamorig10:Spine1/mixamorig10:Spine2
    m_Weight: 0
  - m_Path: mixamorig10:Hips/mixamorig10:Spine/mixamorig10:Spine1/mixamorig10:Spine2/mixamorig10:LeftShoulder
    m_Weight: 1
  - m_Path: mixamorig10:Hips/mixamorig10:Spine/mixamorig10:Spine1/mixamorig10:Spine2/mixamorig10:LeftShoulder/mixamorig10:LeftArm
    m_Weight: 1
  - m_Path: mixamorig10:Hips/mixamorig10:Spine/mixamorig10:Spine1/mixamorig10:Spine2/mixamorig10:LeftShoulder/mixamorig10:LeftArm/mixamorig10:LeftForeArm
    m_Weight: 1
  - m_Path: mixamorig10:Hips/mixamorig10:Spine/mixamorig10:Spine1/mixamorig10:Spine2/mixamorig10:LeftShoulder/mixamorig10:LeftArm/mixamorig10:LeftForeArm/mixamorig10:LeftHand
    m_Weight: 1
  - m_Path: mixamorig10:Hips/mixamorig10:Spine/mixamorig10:Spine1/mixamorig10:Spine2/mixamorig10:LeftShoulder/mixamorig10:LeftArm/mixamorig10:LeftForeArm/mixamorig10:LeftHand/mixamorig10:LeftHandIndex1
    m_Weight: 0
  - m_Path: mixamorig10:Hips/mixamorig10:Spine/mixamorig10:Spine1/mixamorig10:Spine2/mixamorig10:LeftShoulder/mixamorig10:LeftArm/mixamorig10:LeftForeArm/mixamorig10:LeftHand/mixamorig10:LeftHandIndex1/mixamorig10:LeftHandIndex2
    m_Weight: 1
  - m_Path: mixamorig10:Hips/mixamorig10:Spine/mixamorig10:Spine1/mixamorig10:Spine2/mixamorig10:LeftShoulder/mixamorig10:LeftArm/mixamorig10:LeftForeArm/mixamorig10:LeftHand/mixamorig10:LeftHandIndex1/mixamorig10:LeftHandIndex2/mixamorig10:LeftHandIndex3
    m_Weight: 1
  - m_Path: mixamorig10:Hips/mixamorig10:Spine/mixamorig10:Spine1/mixamorig10:Spine2/mixamorig10:LeftShoulder/mixamorig10:LeftArm/mixamorig10:LeftForeArm/mixamorig10:LeftHand/mixamorig10:LeftHandIndex1/mixamorig10:LeftHandIndex2/mixamorig10:LeftHandIndex3/mixamorig10:LeftHandIndex4
    m_Weight: 1
  - m_Path: mixamorig10:Hips/mixamorig10:Spine/mixamorig10:Spine1/mixamorig10:Spine2/mixamorig10:LeftShoulder/mixamorig10:LeftArm/mixamorig10:LeftForeArm/mixamorig10:LeftHand/mixamorig10:LeftHandMiddle1
    m_Weight: 0
  - m_Path: mixamorig10:Hips/mixamorig10:Spine/mixamorig10:Spine1/mixamorig10:Spine2/mixamorig10:LeftShoulder/mixamorig10:LeftArm/mixamorig10:LeftForeArm/mixamorig10:LeftHand/mixamorig10:LeftHandMiddle1/mixamorig10:LeftHandMiddle2
    m_Weight: 1
  - m_Path: mixamorig10:Hips/mixamorig10:Spine/mixamorig10:Spine1/mixamorig10:Spine2/mixamorig10:LeftShoulder/mixamorig10:LeftArm/mixamorig10:LeftForeArm/mixamorig10:LeftHand/mixamorig10:LeftHandMiddle1/mixamorig10:LeftHandMiddle2/mixamorig10:LeftHandMiddle3
    m_Weight: 1
  - m_Path: mixamorig10:Hips/mixamorig10:Spine/mixamorig10:Spine1/mixamorig10:Spine2/mixamorig10:LeftShoulder/mixamorig10:LeftArm/mixamorig10:LeftForeArm/mixamorig10:LeftHand/mixamorig10:LeftHandMiddle1/mixamorig10:LeftHandMiddle2/mixamorig10:LeftHandMiddle3/mixamorig10:LeftHandMiddle4
    m_Weight: 1
  - m_Path: mixamorig10:Hips/mixamorig10:Spine/mixamorig10:Spine1/mixamorig10:Spine2/mixamorig10:LeftShoulder/mixamorig10:LeftArm/mixamorig10:LeftForeArm/mixamorig10:LeftHand/mixamorig10:LeftHandPinky1
    m_Weight: 0
  - m_Path: mixamorig10:Hips/mixamorig10:Spine/mixamorig10:Spine1/mixamorig10:Spine2/mixamorig10:LeftShoulder/mixamorig10:LeftArm/mixamorig10:LeftForeArm/mixamorig10:LeftHand/mixamorig10:LeftHandPinky1/mixamorig10:LeftHandPinky2
    m_Weight: 1
  - m_Path: mixamorig10:Hips/mixamorig10:Spine/mixamorig10:Spine1/mixamorig10:Spine2/mixamorig10:LeftShoulder/mixamorig10:LeftArm/mixamorig10:LeftForeArm/mixamorig10:LeftHand/mixamorig10:LeftHandPinky1/mixamorig10:LeftHandPinky2/mixamorig10:LeftHandPinky3
    m_Weight: 1
  - m_Path: mixamorig10:Hips/mixamorig10:Spine/mixamorig10:Spine1/mixamorig10:Spine2/mixamorig10:LeftShoulder/mixamorig10:LeftArm/mixamorig10:LeftForeArm/mixamorig10:LeftHand/mixamorig10:LeftHandPinky1/mixamorig10:LeftHandPinky2/mixamorig10:LeftHandPinky3/mixamorig10:LeftHandPinky4
    m_Weight: 1
  - m_Path: mixamorig10:Hips/mixamorig10:Spine/mixamorig10:Spine1/mixamorig10:Spine2/mixamorig10:LeftShoulder/mixamorig10:LeftArm/mixamorig10:LeftForeArm/mixamorig10:LeftHand/mixamorig10:LeftHandRing1
    m_Weight: 0
  - m_Path: mixamorig10:Hips/mixamorig10:Spine/mixamorig10:Spine1/mixamorig10:Spine2/mixamorig10:LeftShoulder/mixamorig10:LeftArm/mixamorig10:LeftForeArm/mixamorig10:LeftHand/mixamorig10:LeftHandRing1/mixamorig10:LeftHandRing2
    m_Weight: 1
  - m_Path: mixamorig10:Hips/mixamorig10:Spine/mixamorig10:Spine1/mixamorig10:Spine2/mixamorig10:LeftShoulder/mixamorig10:LeftArm/mixamorig10:LeftForeArm/mixamorig10:LeftHand/mixamorig10:LeftHandRing1/mixamorig10:LeftHandRing2/mixamorig10:LeftHandRing3
    m_Weight: 1
  - m_Path: mixamorig10:Hips/mixamorig10:Spine/mixamorig10:Spine1/mixamorig10:Spine2/mixamorig10:LeftShoulder/mixamorig10:LeftArm/mixamorig10:LeftForeArm/mixamorig10:LeftHand/mixamorig10:LeftHandRing1/mixamorig10:LeftHandRing2/mixamorig10:LeftHandRing3/mixamorig10:LeftHandRing4
    m_Weight: 1
  - m_Path: mixamorig10:Hips/mixamorig10:Spine/mixamorig10:Spine1/mixamorig10:Spine2/mixamorig10:LeftShoulder/mixamorig10:LeftArm/mixamorig10:LeftForeArm/mixamorig10:LeftHand/mixamorig10:LeftHandThumb1
    m_Weight: 0
  - m_Path: mixamorig10:Hips/mixamorig10:Spine/mixamorig10:Spine1/mixamorig10:Spine2/mixamorig10:LeftShoulder/mixamorig10:LeftArm/mixamorig10:LeftForeArm/mixamorig10:LeftHand/mixamorig10:LeftHandThumb1/mixamorig10:LeftHandThumb2
    m_Weight: 1
  - m_Path: mixamorig10:Hips/mixamorig10:Spine/mixamorig10:Spine1/mixamorig10:Spine2/mixamorig10:LeftShoulder/mixamorig10:LeftArm/mixamorig10:LeftForeArm/mixamorig10:LeftHand/mixamorig10:LeftHandThumb1/mixamorig10:LeftHandThumb2/mixamorig10:LeftHandThumb3
    m_Weight: 1
  - m_Path: mixamorig10:Hips/mixamorig10:Spine/mixamorig10:Spine1/mixamorig10:Spine2/mixamorig10:LeftShoulder/mixamorig10:LeftArm/mixamorig10:LeftForeArm/mixamorig10:LeftHand/mixamorig10:LeftHandThumb1/mixamorig10:LeftHandThumb2/mixamorig10:LeftHandThumb3/mixamorig10:LeftHandThumb4
    m_Weight: 1
  - m_Path: mixamorig10:Hips/mixamorig10:Spine/mixamorig10:Spine1/mixamorig10:Spine2/mixamorig10:Neck
    m_Weight: 0
  - m_Path: mixamorig10:Hips/mixamorig10:Spine/mixamorig10:Spine1/mixamorig10:Spine2/mixamorig10:Neck/mixamorig10:Head
    m_Weight: 1
  - m_Path: mixamorig10:Hips/mixamorig10:Spine/mixamorig10:Spine1/mixamorig10:Spine2/mixamorig10:Neck/mixamorig10:Head/mixamorig10:HeadTop_End
    m_Weight: 1
  - m_Path: mixamorig10:Hips/mixamorig10:Spine/mixamorig10:Spine1/mixamorig10:Spine2/mixamorig10:RightShoulder
    m_Weight: 0
  - m_Path: mixamorig10:Hips/mixamorig10:Spine/mixamorig10:Spine1/mixamorig10:Spine2/mixamorig10:RightShoulder/mixamorig10:RightArm
    m_Weight: 0
  - m_Path: mixamorig10:Hips/mixamorig10:Spine/mixamorig10:Spine1/mixamorig10:Spine2/mixamorig10:RightShoulder/mixamorig10:RightArm/mixamorig10:RightForeArm
    m_Weight: 0
  - m_Path: mixamorig10:Hips/mixamorig10:Spine/mixamorig10:Spine1/mixamorig10:Spine2/mixamorig10:RightShoulder/mixamorig10:RightArm/mixamorig10:RightForeArm/mixamorig10:RightHand
    m_Weight: 0
  - m_Path: mixamorig10:Hips/mixamorig10:Spine/mixamorig10:Spine1/mixamorig10:Spine2/mixamorig10:RightShoulder/mixamorig10:RightArm/mixamorig10:RightForeArm/mixamorig10:RightHand/mixamorig10:RightHandIndex1
    m_Weight: 0
  - m_Path: mixamorig10:Hips/mixamorig10:Spine/mixamorig10:Spine1/mixamorig10:Spine2/mixamorig10:RightShoulder/mixamorig10:RightArm/mixamorig10:RightForeArm/mixamorig10:RightHand/mixamorig10:RightHandIndex1/mixamorig10:RightHandIndex2
    m_Weight: 1
  - m_Path: mixamorig10:Hips/mixamorig10:Spine/mixamorig10:Spine1/mixamorig10:Spine2/mixamorig10:RightShoulder/mixamorig10:RightArm/mixamorig10:RightForeArm/mixamorig10:RightHand/mixamorig10:RightHandIndex1/mixamorig10:RightHandIndex2/mixamorig10:RightHandIndex3
    m_Weight: 1
  - m_Path: mixamorig10:Hips/mixamorig10:Spine/mixamorig10:Spine1/mixamorig10:Spine2/mixamorig10:RightShoulder/mixamorig10:RightArm/mixamorig10:RightForeArm/mixamorig10:RightHand/mixamorig10:RightHandIndex1/mixamorig10:RightHandIndex2/mixamorig10:RightHandIndex3/mixamorig10:RightHandIndex4
    m_Weight: 1
  - m_Path: mixamorig10:Hips/mixamorig10:Spine/mixamorig10:Spine1/mixamorig10:Spine2/mixamorig10:RightShoulder/mixamorig10:RightArm/mixamorig10:RightForeArm/mixamorig10:RightHand/mixamorig10:RightHandMiddle1
    m_Weight: 0
  - m_Path: mixamorig10:Hips/mixamorig10:Spine/mixamorig10:Spine1/mixamorig10:Spine2/mixamorig10:RightShoulder/mixamorig10:RightArm/mixamorig10:RightForeArm/mixamorig10:RightHand/mixamorig10:RightHandMiddle1/mixamorig10:RightHandMiddle2
    m_Weight: 1
  - m_Path: mixamorig10:Hips/mixamorig10:Spine/mixamorig10:Spine1/mixamorig10:Spine2/mixamorig10:RightShoulder/mixamorig10:RightArm/mixamorig10:RightForeArm/mixamorig10:RightHand/mixamorig10:RightHandMiddle1/mixamorig10:RightHandMiddle2/mixamorig10:RightHandMiddle3
    m_Weight: 1
  - m_Path: mixamorig10:Hips/mixamorig10:Spine/mixamorig10:Spine1/mixamorig10:Spine2/mixamorig10:RightShoulder/mixamorig10:RightArm/mixamorig10:RightForeArm/mixamorig10:RightHand/mixamorig10:RightHandMiddle1/mixamorig10:RightHandMiddle2/mixamorig10:RightHandMiddle3/mixamorig10:RightHandMiddle4
    m_Weight: 1
  - m_Path: mixamorig10:Hips/mixamorig10:Spine/mixamorig10:Spine1/mixamorig10:Spine2/mixamorig10:RightShoulder/mixamorig10:RightArm/mixamorig10:RightForeArm/mixamorig10:RightHand/mixamorig10:RightHandPinky1
    m_Weight: 0
  - m_Path: mixamorig10:Hips/mixamorig10:Spine/mixamorig10:Spine1/mixamorig10:Spine2/mixamorig10:RightShoulder/mixamorig10:RightArm/mixamorig10:RightForeArm/mixamorig10:RightHand/mixamorig10:RightHandPinky1/mixamorig10:RightHandPinky2
    m_Weight: 1
  - m_Path: mixamorig10:Hips/mixamorig10:Spine/mixamorig10:Spine1/mixamorig10:Spine2/mixamorig10:RightShoulder/mixamorig10:RightArm/mixamorig10:RightForeArm/mixamorig10:RightHand/mixamorig10:RightHandPinky1/mixamorig10:RightHandPinky2/mixamorig10:RightHandPinky3
    m_Weight: 1
  - m_Path: mixamorig10:Hips/mixamorig10:Spine/mixamorig10:Spine1/mixamorig10:Spine2/mixamorig10:RightShoulder/mixamorig10:RightArm/mixamorig10:RightForeArm/mixamorig10:RightHand/mixamorig10:RightHandPinky1/mixamorig10:RightHandPinky2/mixamorig10:RightHandPinky3/mixamorig10:RightHandPinky4
    m_Weight: 1
  - m_Path: mixamorig10:Hips/mixamorig10:Spine/mixamorig10:Spine1/mixamorig10:Spine2/mixamorig10:RightShoulder/mixamorig10:RightArm/mixamorig10:RightForeArm/mixamorig10:RightHand/mixamorig10:RightHandRing1
    m_Weight: 0
  - m_Path: mixamorig10:Hips/mixamorig10:Spine/mixamorig10:Spine1/mixamorig10:Spine2/mixamorig10:RightShoulder/mixamorig10:RightArm/mixamorig10:RightForeArm/mixamorig10:RightHand/mixamorig10:RightHandRing1/mixamorig10:RightHandRing2
    m_Weight: 1
  - m_Path: mixamorig10:Hips/mixamorig10:Spine/mixamorig10:Spine1/mixamorig10:Spine2/mixamorig10:RightShoulder/mixamorig10:RightArm/mixamorig10:RightForeArm/mixamorig10:RightHand/mixamorig10:RightHandRing1/mixamorig10:RightHandRing2/mixamorig10:RightHandRing3
    m_Weight: 1
  - m_Path: mixamorig10:Hips/mixamorig10:Spine/mixamorig10:Spine1/mixamorig10:Spine2/mixamorig10:RightShoulder/mixamorig10:RightArm/mixamorig10:RightForeArm/mixamorig10:RightHand/mixamorig10:RightHandRing1/mixamorig10:RightHandRing2/mixamorig10:RightHandRing3/mixamorig10:RightHandRing4
    m_Weight: 1
  - m_Path: mixamorig10:Hips/mixamorig10:Spine/mixamorig10:Spine1/mixamorig10:Spine2/mixamorig10:RightShoulder/mixamorig10:RightArm/mixamorig10:RightForeArm/mixamorig10:RightHand/mixamorig10:RightHandThumb1
    m_Weight: 0
  - m_Path: mixamorig10:Hips/mixamorig10:Spine/mixamorig10:Spine1/mixamorig10:Spine2/mixamorig10:RightShoulder/mixamorig10:RightArm/mixamorig10:RightForeArm/mixamorig10:RightHand/mixamorig10:RightHandThumb1/mixamorig10:RightHandThumb2
    m_Weight: 1
  - m_Path: mixamorig10:Hips/mixamorig10:Spine/mixamorig10:Spine1/mixamorig10:Spine2/mixamorig10:RightShoulder/mixamorig10:RightArm/mixamorig10:RightForeArm/mixamorig10:RightHand/mixamorig10:RightHandThumb1/mixamorig10:RightHandThumb2/mixamorig10:RightHandThumb3
    m_Weight: 1
  - m_Path: mixamorig10:Hips/mixamorig10:Spine/mixamorig10:Spine1/mixamorig10:Spine2/mixamorig10:RightShoulder/mixamorig10:RightArm/mixamorig10:RightForeArm/mixamorig10:RightHand/mixamorig10:RightHandThumb1/mixamorig10:RightHandThumb2/mixamorig10:RightHandThumb3/mixamorig10:RightHandThumb4
    m_Weight: 1
